Data Science Design Pattern for Student Drop Out
…
ds[numc] %>%
  cor(use="complete.obs") %>%
  ifelse(upper.tri(., diag=TRUE), NA, .) %>% 
  abs %>% 
  data.frame %>%
  tbl_df %>%
  set_colnames(numc) %>%
  mutate(var1=numc) %>% 
  gather(var2, cor, -var1) %>% 
  na.omit %>%
  arrange(-abs(cor)) %T>%
  print() ->
mc

## # A tibble: 28 x 3
##                  var1              var2        cor
##                 <chr>             <chr>      <dbl>
## 1       science_marks mathematics_marks 1.00000000
## 2       english_marks mathematics_marks 0.54978698
## 3       science_marks     english_marks 0.54978698
## 4       total_toilets    total_students 0.30231358
## 5  establishment_year     total_toilets 0.16805996
## 6     science_teacher mathematics_marks 0.03872271
## 7     science_teacher     science_marks 0.03872271
## 8  establishment_year    total_students 0.03666162
## 9     science_teacher     english_marks 0.03473078
## 10  languages_teacher     english_marks 0.02543076
## # ... with 18 more rows
…
